module github.com/moov-io/watchman

require (
	github.com/abadojack/whatlanggo v1.0.1
	github.com/antihax/optional v0.0.0-20180407024304-ca021399b1a6
	github.com/bbalet/stopwords v1.0.0
	github.com/cenkalti/backoff/v3 v3.2.2 // indirect
	github.com/containerd/continuity v0.0.0-20200107194136-26c1120b8d41 // indirect
	github.com/go-kit/kit v0.10.0
	github.com/go-sql-driver/mysql v1.5.0
	github.com/gorilla/mux v1.7.4
	github.com/gorilla/websocket v1.4.2 // indirect
	github.com/gotestyourself/gotestyourself v2.2.0+incompatible // indirect
	github.com/lopezator/migrator v0.3.0
	github.com/mattn/go-sqlite3 v1.14.0
	github.com/moov-io/base v0.11.0
	github.com/ory/dockertest/v3 v3.6.0
	github.com/pariz/gountries v0.0.0-20200430155801-1c6a393df9c7
	github.com/pkg/errors v0.9.1 // indirect
	github.com/prometheus/client_golang v1.7.1
	github.com/xrash/smetrics v0.0.0-20170218160415-a3153f7040e9
	go4.org v0.0.0-20200411211856-f5505b9728dd
	golang.org/x/oauth2 v0.0.0-20200107190931-bf48bf16ab8d
	golang.org/x/text v0.3.3
	gotest.tools v2.2.0+incompatible // indirect
)

go 1.13
